<svg width="40" height="40" viewBox="0 0 40 40" fill="none" xmlns="http://www.w3.org/2000/svg">
<rect width="40" height="40" rx="10" fill="#FFEBE6"/>
<path d="M19.4923 10.789H15.7533C12.6783 10.789 10.7503 12.966 10.7503 16.048V24.362C10.7503 27.444 12.6693 29.621 15.7533 29.621H24.5773C27.6623 29.621 29.5813 27.444 29.5813 24.362V20.334" stroke="#FF5C00" stroke-width="1.5" stroke-linecap="round" stroke-linejoin="round"/>
<path fill-rule="evenodd" clip-rule="evenodd" d="M16.8278 18.9209L24.3008 11.4479C25.2318 10.5179 26.7408 10.5179 27.6718 11.4479L28.8888 12.6649C29.8198 13.5959 29.8198 15.1059 28.8888 16.0359L21.3798 23.5449C20.9728 23.9519 20.4208 24.1809 19.8448 24.1809H16.0988L16.1928 20.4009C16.2068 19.8449 16.4338 19.3149 16.8278 18.9209Z" stroke="#FF5C00" stroke-width="1.5" stroke-linecap="round" stroke-linejoin="round"/>
<path d="M23.1652 12.6025L27.7312 17.1685" stroke="#FF5C00" stroke-width="1.5" stroke-linecap="round" stroke-linejoin="round"/>
</svg>
