<svg width="60" height="60" viewBox="0 0 60 60" fill="none" xmlns="http://www.w3.org/2000/svg">
<rect width="60" height="60" rx="10" fill="#E8FFE6"/>
<path d="M26.8482 30.314V34.059" stroke="#23CC52" stroke-width="1.5" stroke-linecap="round" stroke-linejoin="round"/>
<path d="M28.759 32.1867H24.9379" stroke="#23CC52" stroke-width="1.5" stroke-linecap="round" stroke-linejoin="round"/>
<path d="M33.3661 30.428H33.2591" stroke="#23CC52" stroke-width="1.5" stroke-linecap="round" stroke-linejoin="round"/>
<path d="M35.1796 34.0026H35.0726" stroke="#23CC52" stroke-width="1.5" stroke-linecap="round" stroke-linejoin="round"/>
<path d="M26.0722 20C26.0722 20.7405 26.6846 21.3408 27.4402 21.3408H28.4967C29.6623 21.3449 30.6064 22.2703 30.6117 23.4127V24.0877" stroke="#23CC52" stroke-width="1.5" stroke-linecap="round" stroke-linejoin="round"/>
<path fill-rule="evenodd" clip-rule="evenodd" d="M34.4283 39.9626C31.4231 40.0135 28.473 40.0114 25.5727 39.9626C22.3535 39.9626 20 37.6664 20 34.5113V29.8617C20 26.7066 22.3535 24.4104 25.5727 24.4104C28.4889 24.3605 31.4411 24.3616 34.4283 24.4104C37.6476 24.4104 40 26.7077 40 29.8617V34.5113C40 37.6664 37.6476 39.9626 34.4283 39.9626Z" stroke="#23CC52" stroke-width="1.5" stroke-linecap="round" stroke-linejoin="round"/>
</svg>
