<svg width="60" height="60" viewBox="0 0 60 60" fill="none" xmlns="http://www.w3.org/2000/svg">
<rect width="60" height="60" rx="10" fill="#FFFAE7"/>
<path d="M21.0926 27.4043H38.9166" stroke="#FFD100" stroke-width="1.5" stroke-linecap="round" stroke-linejoin="round"/>
<path d="M34.4421 31.3097H34.4513" stroke="#FFD100" stroke-width="1.5" stroke-linecap="round" stroke-linejoin="round"/>
<path d="M30.0046 31.3097H30.0139" stroke="#FFD100" stroke-width="1.5" stroke-linecap="round" stroke-linejoin="round"/>
<path d="M25.5579 31.3097H25.5672" stroke="#FFD100" stroke-width="1.5" stroke-linecap="round" stroke-linejoin="round"/>
<path d="M34.4421 35.1962H34.4513" stroke="#FFD100" stroke-width="1.5" stroke-linecap="round" stroke-linejoin="round"/>
<path d="M30.0046 35.1962H30.0139" stroke="#FFD100" stroke-width="1.5" stroke-linecap="round" stroke-linejoin="round"/>
<path d="M25.5579 35.1962H25.5672" stroke="#FFD100" stroke-width="1.5" stroke-linecap="round" stroke-linejoin="round"/>
<path d="M34.0437 20V23.2908" stroke="#FFD100" stroke-width="1.5" stroke-linecap="round" stroke-linejoin="round"/>
<path d="M25.9655 20V23.2908" stroke="#FFD100" stroke-width="1.5" stroke-linecap="round" stroke-linejoin="round"/>
<path fill-rule="evenodd" clip-rule="evenodd" d="M34.2383 21.5792H25.771C22.8343 21.5792 21 23.2151 21 26.2222V35.2719C21 38.3262 22.8343 40 25.771 40H34.229C37.175 40 39 38.3546 39 35.3475V26.2222C39.0092 23.2151 37.1842 21.5792 34.2383 21.5792Z" stroke="#FFD100" stroke-width="1.5" stroke-linecap="round" stroke-linejoin="round"/>
</svg>
